{
    "content": [
        {
            "context": {},
            "origin": "https://eutils.ncbi.nlm.nih.gov/entrez/eutils/efetch.fcgi?id=28508702&db=pubmed&rettype=medline&retmode=text",
            "pdf_context": null,
            "source": null,
            "title": "",
            "type": "text",
            "version": "1.0"
        }
    ],
    "context": {
        "pubmed_source_create_text_collection_document": {
            "articles": 1,
            "from_date": "",
            "hours": -1,
            "to_date": ""
        }
    },
    "origin": null,
    "source": null,
    "title": "",
    "type": "collection",
    "version": "1.0"
}