{
    "content": [
        {
            "authors": [
                {
                    "affiliation": [
                        "Springer Nature, Private Bag 65901, Mairangi Bay, Auckland, 0754, New Zealand. dru@adis.com."
                    ],
                    "name": "Lamb, Yvette N"
                }
            ],
            "coi_statement": "",
            "content": "",
            "context": {
                "litcovid_source_create_publication_collection_document": {
                    "countries": [
                        " Canada",
                        " China",
                        " Japan",
                        " United States"
                    ],
                    "pmid": "32870481",
                    "topics": [
                        " Treatment"
                    ]
                }
            },
            "copyright": "",
            "country": "New Zealand",
            "doi": "10.1007/s40265-020-01378-w",
            "entrez_date": "2020-09-02",
            "full_text_url": "https://www.ncbi.nlm.nih.gov/pmc/articles/PMC7459246",
            "journal": "Drugs",
            "journal_ISSN": "1179-1950",
            "journal_abbreviation": "Drugs",
            "journal_issue": "13",
            "journal_volume": "80",
            "keywords": [],
            "language": "eng",
            "origin": "https://eutils.ncbi.nlm.nih.gov/entrez/eutils/efetch.fcgi?id=32870481&db=pubmed&rettype=abstract&retmode=xml",
            "pagination": "1355-1363",
            "provider": "pubmed",
            "provider_id": "32870481",
            "provider_url": "http://www.ncbi.nlm.nih.gov/pubmed/32870481",
            "publication_date": "2020-09-01",
            "publication_type": [
                "Journal Article",
                "Review"
            ],
            "references": [
                "Sci Transl Med. 2017 Jun 28;9(396):",
                "Clin Infect Dis. 2021 Dec 6;73(11):e4166-e4174",
                "N Engl J Med. 2020 Nov 5;383(19):1827-1837",
                "Viruses. 2019 Apr 04;11(4):",
                "Nature. 2016 Mar 17;531(7594):381-5",
                "Arch Med Res. 2020 Aug;51(6):585-586",
                "N Engl J Med. 2020 Jun 11;382(24):2327-2336",
                "J Biol Chem. 2020 May 15;295(20):6785-6797",
                "Nature. 2020 Sep;585(7824):273-276",
                "N Engl J Med. 2020 Sep 3;383(10):994",
                "Antiviral Res. 2019 Sep;169:104541",
                "Lancet. 2020 May 16;395(10236):1569-1578",
                "Sci Rep. 2017 Mar 06;7:43395",
                "N Engl J Med. 2019 Dec 12;381(24):2293-2303",
                "J Biol Chem. 2020 Apr 10;295(15):4773-4779",
                "Clin Transl Sci. 2020 Sep;13(5):896-906",
                "Cell Rep. 2020 Jul 21;32(3):107940",
                "Prim Care Companion CNS Disord. 2020 May 28;22(3):",
                "Clin Transl Sci. 2020 Sep;13(5):842-844"
            ],
            "source": null,
            "title": "Remdesivir: First Approval",
            "type": "publication",
            "version": "1.0"
        }
    ],
    "context": {
        "litcovid_source_create_publication_collection_document": {
            "articles": 1,
            "from_date": "",
            "full_text": false,
            "hours": -1,
            "sort": "score desc",
            "to_date": ""
        }
    },
    "origin": null,
    "source": null,
    "title": "",
    "type": "collection",
    "version": "1.0"
}