{
    "content": [
        {
            "authors": [
                {
                    "affiliation": [
                        "Department of Molecular Virology and Microbiology, Baylor College of Medicine, Houston, Texas, USA"
                    ],
                    "name": "Rajan, Anubama"
                },
                {
                    "affiliation": [
                        "Department of Molecular Virology and Microbiology, Baylor College of Medicine, Houston, Texas, USA"
                    ],
                    "name": "Weaver, Ashley Morgan"
                },
                {
                    "affiliation": [
                        "Department of Molecular Virology and Microbiology, Baylor College of Medicine, Houston, Texas, USA"
                    ],
                    "name": "Aloisio, Gina Marie"
                },
                {
                    "affiliation": [
                        "Department of Molecular Virology and Microbiology, Baylor College of Medicine, Houston, Texas, USA"
                    ],
                    "name": "Jelinski, Joseph"
                },
                {
                    "affiliation": [
                        "Advanced Technology Cores, and Department of Molecular and Cellular Biology, Baylor College of Medicine, Houston, TX, USA"
                    ],
                    "name": "Johnson, Hannah L"
                },
                {
                    "affiliation": [
                        "Department of Pathology, Baylor College of Medicine, Houston, TX, USA"
                    ],
                    "name": "Venable, Susan F"
                },
                {
                    "affiliation": [
                        "Department of Molecular Virology and Microbiology, Baylor College of Medicine, Houston, Texas, USA"
                    ],
                    "name": "McBride, Trevor"
                },
                {
                    "affiliation": [
                        "Department of Molecular Virology and Microbiology, Baylor College of Medicine, Houston, Texas, USA"
                    ],
                    "name": "Aideyan, Letisha"
                },
                {
                    "affiliation": [
                        "Department of Molecular Virology and Microbiology, Baylor College of Medicine, Houston, Texas, USA"
                    ],
                    "name": "Piedra, Felipe-Andrés"
                },
                {
                    "affiliation": [
                        "Department of Molecular Virology and Microbiology, Baylor College of Medicine, Houston, Texas, USA"
                    ],
                    "name": "Ye, Xunyan"
                },
                {
                    "affiliation": [
                        "Department of Pediatrics, Pulmonary Medicine Service, Baylor College of Medicine, Houston, TX USA"
                    ],
                    "name": "Melicoff-Portillo, Ernestina"
                },
                {
                    "affiliation": [
                        "Department of Molecular Virology and Microbiology, Baylor College of Medicine, Houston, Texas, USA"
                    ],
                    "name": "Yerramilli, Malli Rama Kanthi"
                },
                {
                    "affiliation": [
                        "Department of Molecular Virology and Microbiology, Baylor College of Medicine, Houston, Texas, USA"
                    ],
                    "name": "Zeng, Xi-Lei"
                },
                {
                    "affiliation": [
                        "Advanced Technology Cores, and Department of Molecular and Cellular Biology, Baylor College of Medicine, Houston, TX, USA"
                    ],
                    "name": "Mancini, Michael A"
                },
                {
                    "affiliation": [
                        "Advanced Technology Cores, and Department of Molecular and Cellular Biology, Baylor College of Medicine, Houston, TX, USA"
                    ],
                    "name": "Stossi, Fabio"
                },
                {
                    "affiliation": [
                        "Department of Molecular Virology and Microbiology, Baylor College of Medicine, Houston, Texas, USA"
                    ],
                    "name": "Maresso, Anthony W"
                },
                {
                    "affiliation": [
                        "Environmental Safety Department, Baylor College of Medicine, Houston, TX, USA"
                    ],
                    "name": "Kotkar, Shalaka A"
                },
                {
                    "affiliation": [
                        "Department of Molecular Virology and Microbiology, Baylor College of Medicine, Houston, Texas, USA",
                        "Department of Medicine, Infectious Diseases and Gastroenterology and Hepatology, Baylor College of Medicine, Houston, TX USA"
                    ],
                    "name": "Estes, Mary K"
                },
                {
                    "affiliation": [
                        "Department of Molecular Virology and Microbiology, Baylor College of Medicine, Houston, Texas, USA"
                    ],
                    "name": "Blutt, Sarah"
                },
                {
                    "affiliation": [
                        "Department of Molecular Virology and Microbiology, Baylor College of Medicine, Houston, Texas, USA"
                    ],
                    "name": "Avadhanula, Vasanthi"
                },
                {
                    "affiliation": [
                        "Department of Molecular Virology and Microbiology, Baylor College of Medicine, Houston, Texas, USA",
                        "Department of Pediatrics, Baylor College of Medicine, Houston, TX, US"
                    ],
                    "name": "Piedra, Pedro A"
                }
            ],
            "coi_statement": "The authors have declared no competing interest.",
            "context": {},
            "copyright": "© 2021, Posted by Cold Spring Harbor Laboratory",
            "country": "",
            "doi": "10.1101/2021.07.28.453844",
            "entrez_date": "2021-07-28",
            "full_text_url": "https://www.biorxiv.org/content/10.1101/2021.07.28.453844.full",
            "journal": "bioRxiv",
            "journal_ISSN": "",
            "journal_abbreviation": "bioRxiv",
            "journal_issue": "",
            "journal_volume": "",
            "keywords": [
                "Nose organoids",
                "RSV",
                "SARS-CoV-2",
                "cilia",
                "palivizumab",
                "ALI culture",
                "epithelium",
                "airway",
                "mucus",
                "therapeutics",
                "cytokines"
            ],
            "language": "eng",
            "origin": "https://www.biorxiv.org/content/early/2021/07/28/2021.07.28.453844.source.xml",
            "pagination": "",
            "provider": "biorxiv",
            "provider_id": "10.1101/2021.07.28.453844",
            "provider_url": "https://www.biorxiv.org/content/10.1101/2021.07.28.453844",
            "publication_date": "2021-07-28",
            "publication_type": [
                "Preprint"
            ],
            "references": [
                "van der Vaart, J. and H. Clevers, Airway organoids as models of human disease. Journal of Internal Medicine. n/a(n/a",
                "Tadokoro, T., et al., IL-6/STAT3 promotes regeneration of airway ciliated cells from basalstem cells. Proceedings of the National Academy of Sciences, 2014. 111(35): p. E3641",
                "Tadokoro, T., et al., BMP signaling and cellular dynamics during regeneration of airway epithelium from basalprogenitors. Development, 2016. 143(5): p. 764–73",
                "Dye, B.R., et al., In vitro generation of human pluripotent stem cell derived lung organoids. eLife, 2015. 4: p. e05098",
                "Chen, Y.-W., et al., A three-dimensionalmodelof human lung development and disease from pluripotent stem cells. Nature Cell Biology, 2017. 19(5): p. 542–549",
                "Huang, S.X., et al., Efficient generation of lung and airway epithelial cells from human pluripotent stem cells. Nat Biotechnol, 2014. 32(1): p. 84–91",
                "Sachs, N., et al., Long-term expanding human airway organoids for disease modeling. Embo j, 2019. 38(4",
                "Brewington, J.J., et al., Detection of CFTR function and modulation in primary human nasalcell spheroids. J Cyst Fibros, 2018. 17(1): p. 26–33",
                "Gamage, A.M., et al., Infection of human Nasal Epithelial Cells with SARS-CoV-2 and a 382-nt deletion isolate lacking ORF8 reveals similar viral kinetics and host transcriptional profiles. PLoS Pathog, 2020. 16(12): p. e1009130",
                "Nair, H., et al., Globalburden of acute lower respiratory infections due to respiratory syncytial virus in young children: a systematic review and meta-analysis. Lancet, 2010. 375(9725): p. 1545–55",
                "Shi, T., et al., Global, regional, and nationaldisease burden estimates of acute lower respiratory infections due to respiratory syncytial virus in young children in 2015: a systematic review and modelling study. The Lancet, 2017. 390(10098): p. 946–958",
                "Welliver, T.P., et al., Severe human lower respiratory tract illness caused by respiratory syncytial virus and influenza virus is characterized by the absence of pulmonary cytotoxic lymphocyte responses. J Infect Dis, 2007. 195(8): p. 1126–36",
                "Hall, C.B., The burgeoning burden of respiratory syncytial virus among children. Infect Disord Drug Targets, 2012. 12(2): p. 92–7",
                "Falsey, A.R., et al., Respiratory syncytial virus infection in elderly and high-risk adults. N Engl J Med, 2005. 352(17): p. 1749–59",
                "Dong, E., H. Du, and L. Gardner, An interactive web-based dashboard to track COVID-19 in real time. The Lancet Infectious Diseases, 2020. 20(5): p. 533–534",
                "Vázquez, Y., et al., Cytokines in the Respiratory Airway as Biomarkers of Severity and Prognosis for Respiratory Syncytial Virus Infection: An Update. Frontiers in Immunology, 2019. 10(1154",
                "Chen, Y., et al., IP-10 and MCP-1 as biomarkers associated with disease severity of COVID-19. Molecular Medicine, 2020. 26(1): p. 97",
                "Ueland, T., et al., Distinct and early increase in circulating MMP-9 in COVID-19 patients with respiratory failure. J Infect, 2020. 81(3): p. e41–e43",
                "Dabo, A.J., et al., Matrix Metalloproteinase 9 Exerts Antiviral Activity against Respiratory Syncytial Virus. PLOS ONE, 2015. 10(8): p. e0135970",
                "Guiot, J., et al., Blood Biomarkers in Idiopathic Pulmonary Fibrosis. Lung, 2017. 195(3): p. 273–280",
                "Zhang, A.J., et al., Severe Acute Respiratory Syndrome Coronavirus 2 Infects and Damages the Mature and Immature Olfactory Sensory Neurons of Hamsters. Clinical Infectious Diseases, 2020",
                "Williamson, B.N., et al., Clinical benefit of remdesivir in rhesus macaques infected with SARS-CoV-2. Nature, 2020. 585(7824): p. 273–276",
                "Richard, M., et al., SARS-CoV-2 is transmitted via contact and via the air between ferrets. Nat Commun, 2020. 11(1): p. 3496",
                "Johansen, M.D., et al., Animaland translational models of SARS-CoV-2 infection and COVID-19. Mucosal Immunology, 2020. 13(6): p. 877–891",
                "Taylor, G., Animalmodels of respiratory syncytial virus infection. Vaccine, 2017. 35(3): p. 469–480",
                "Bem, R.A., J.B. Domachowske, and H.F. Rosenberg, Animalmodels of human respiratory syncytial virus disease. American Journal of Physiology-Lung Cellular and Molecular Physiology, 2011. 301(2): p. L148–L156",
                "Mulay, A., et al., SARS-CoV-2 infection of primary human lung epithelium for COVID-19 modeling and drug discovery. bioRxiv, 2020",
                "Lamers, M.M., et al., An organoid-derived bronchioalveolar modelfor SARS-CoV-2 infection of human alveolar type II-like cells. The EMBO Journal, 2021. 40(5): p. e105912",
                "Updated guidance for palivizumab prophylaxis among infants and young children at increased risk of hospitalization for respiratory syncytial virus infection. Pediatrics, 2014. 134(2): p. e620–38",
                "Subramanian, K.N., et al., Safety, tolerance and pharmacokinetics of a humanized monoclonal antibody to respiratory syncytial virus in premature infants and infants with bronchopulmonary dysplasia. MEDI-493 Study Group. Pediatr Infect Dis J, 1998. 17(2): p. 110–5",
                "Gilbert, B.E., et al., Respiratory syncytial virus fusion nanoparticle vaccine immune responses target multiple neutralizing epitopes that contribute to protection against wild-type and palivizumab-resistant mutant virus challenge. Vaccine, 2018. 36(52): p. 8069–8078",
                "Benali, R., et al., Tubule formation by human surface respiratory epithelial cells cultured in a three-dimensionalcollagen lattice. Am J Physiol, 1993. 264(2 Pt 1): p. L183–92",
                "Jiang, D., N. Schaefer, and H.W. Chu, Air-Liquid Interface Culture of Human and Mouse Airway Epithelial Cells. Methods Mol Biol, 2018. 1809: p. 91–109",
                "Zhou, J., et al., Differentiated human airway organoids to assess infectivity of emerging influenza virus. Proceedings of the National Academy of Sciences, 2018. 115(26): p. 6822",
                "Gamage, A.M., et al., Infection of human Nasal Epithelial Cells with SARS-CoV-2 and a 382-nt deletion isolate lacking ORF8 reveals similar viral kinetics and host transcriptional profiles. PLOS Pathogens, 2020. 16(12): p. e1009130",
                "Cao, H., et al., Testing gene therapy vectors in human primary nasalepithelial cultures. Molecular Therapy - Methods & Clinical Development, 2015. 2",
                "Charles, D.D., et al., Development of a Novelex vivo Nasal Epithelial Cell Model Supporting Colonization With Human Nasal Microbiota. Frontiers in Cellular and Infection Microbiology, 2019. 9(165",
                "Leung, C., et al., Structural and functional variations in human bronchial epithelial cells cultured in air-liquid interface using different growth media. American Journal of Physiology-Lung Cellular and Molecular Physiology, 2020. 318(5): p. L1063–L1073",
                "Au - Müller, L., et al., Culturing of Human Nasal Epithelial Cells at the Air Liquid Interface. JoVE, 2013(80): p. e50646",
                "Lamers, M.M., et al., SARS-CoV-2 productively infects human gut enterocytes. Science, 2020. 369(6499): p. 50",
                "Freeman, M.C., et al., Respiratory and intestinal epithelial cells exhibit differential susceptibility and innate immune responses to contemporary EV-D68 isolates. bioRxiv, 2021: p. 2021.01.05.425225",
                "Zhang, L., et al., Respiratory syncytial virus infection of human airway epithelial cells is polarized, specific to ciliated cells, and without obvious cytopathology. J Virol, 2002. 76(11): p. 5654–66",
                "Villenave, R., et al., In vitro modeling of respiratory syncytial virus infection of pediatric bronchial epithelium, the primary target of infection in vivo. Proceedings of the National Academy of Sciences of the United States of America, 2012. 109(13): p. 5040–5045",
                "Rijsbergen, L.C., et al., Human Respiratory Syncytial Virus Subgroup A and B Infections in Nasal, Bronchial, Small-Airway, and Organoid-Derived Respiratory Cultures. mSphere, 2021. 6(3",
                "Persson, B.D., et al., Respiratory Syncytial Virus Can Infect Basal Cells and Alter Human Airway Epithelial Differentiation. PLOS ONE, 2014. 9(7): p. e102368",
                "Nicholson, E.G., et al., Robust Cytokine and Chemokine Response in Nasopharyngeal Secretions: Association With Decreased Severity in Children With Physician Diagnosed Bronchiolitis. The Journal of Infectious Diseases, 2016. 214(4): p. 649–655",
                "Sung, R.Y., et al., A comparison of cytokine responses in respiratory syncytial virus and influenza A infections in infants. Eur J Pediatr, 2001. 160(2): p. 117–22",
                "Rajan, A., et al., Multiple RSV strains infecting HEp-2 and A549 cells reveal cell line-dependent differences in resistance to RSV infection. bioRxiv, 2021: p. 2021.06.15.448622",
                "Lambkin-Williams, R., et al., The human viral challenge model: accelerating the evaluation of respiratory antivirals, vaccines and noveldiagnostics. Respiratory Research, 2018. 19(1): p. 123",
                "Groothuis, J.R., et al., Prophylactic Administration of Respiratory Syncytial Virus Immune Globulin to High-Risk Infants and Young Children. New England Journal of Medicine, 1993. 329(21): p. 1524–1530",
                "Siber, G.R., et al., Comparison of antibody concentrations and protective activity of respiratory syncytial virus immune globulin and conventional immune globulin. J Infect Dis, 1994. 169(6): p. 1368–73",
                "Group, T.I.-R.S., Palivizumab, a Humanized Respiratory Syncytial Virus Monoclonal Antibody, Reduces Hospitalization From Respiratory Syncytial Virus Infection in High-risk Infants. Pediatrics, 1998. 102(3): p. 531–537",
                "Neuberger, T., et al., Use of primary cultures of human bronchial epithelial cells isolated from cystic fibrosis patients for the pre-clinical testing of CFTR modulators. Methods Mol Biol, 2011. 741: p. 39–54",
                "Poole, N.M., A. Rajan, and A.W. Maresso, Human Intestinal Enteroids for the Study of Bacterial Adherence, Invasion, and Translocation. Curr Protoc Microbiol, 2018. 50(1): p. e55",
                "Saxena, K., et al., Human Intestinal Enteroids: a New Model To Study Human Rotavirus Infection, Host Restriction, and Pathophysiology. Journal of Virology, 2016. 90(1): p. 43–56",
                "Rajan, A., et al., Novel Segment- and Host-Specific Patterns of Enteroaggregative Escherichia coli Adherence to Human Intestinal Enteroids. mBio, 2018. 9(1): p. e02419–17",
                "Avadhanula, V., et al., Infection With Novel Respiratory Syncytial Virus Genotype Ontario (ON1) in Adult Hematopoietic Cell Transplant Recipients, Texas, 2011-2013. The Journal of Infectious Diseases, 2015. 211(4): p. 582–589",
                "Avadhanula, V., et al., Viral load of SARS-CoV-2 in adults during the first and second wave of COVID-19 pandemic in Houston, TX: the potential of the super-spreader. J Infect Dis, 2021",
                "Englund, J.A., et al., Rapid diagnosis of respiratory syncytial virus infections in immunocompromised adults. J Clin Microbiol, 1996. 34(7): p. 1649–53",
                "Shi, S.R., et al., Antigen retrieval technique utilizing citrate buffer or urea solution for immunohistochemicaldemonstration of androgen receptor in formalin-fixed paraffin sections. J Histochem Cytochem, 1993. 41(11): p. 1599–604"
            ],
            "source": null,
            "title": "The human nose organoid respiratory virus model: an ex-vivo human challenge model to study RSV and SARS-CoV-2 pathogenesis and evaluate therapeutics",
            "type": "publication",
            "version": "1.0"
        }
    ],
    "context": {
        "biorxiv_source_create_publication_collection_document": {
            "abstract_title_flags": "",
            "articles": 1,
            "cursor": 0,
            "direction": "",
            "filters": {},
            "from_date": "",
            "full_text": false,
            "hours": -1,
            "repo": "biorxiv",
            "sort": "",
            "to_date": ""
        }
    },
    "origin": null,
    "source": null,
    "title": "",
    "type": "collection",
    "version": "1.0"
}