{
    "content": [
        {
            "context": {},
            "source": null,
            "title": "",
            "type": "xml",
            "version": "1.0"
        }
    ],
    "context": {
        "proquest_source_create_xml_collection_document": {
            "articles": 1,
            "databases": [
                "medlineprof"
            ]
        }
    },
    "origin": null,
    "source": null,
    "title": "",
    "type": "collection",
    "version": "1.0"
}